{
    "status":"success",
    "data":[
            {
            "image":"http:\/\/portal2.abara.com\/admin\/resources\/certificates\/frames\/frame_1_l.png",
            "name":"Course Completion Certificate",
            "description":"Lorem Ipsum is simply dummy text of the printing and typesetting industry. "
            },
            {
            "image":"http:\/\/portal2.abara.com\/admin\/resources\/certificates\/frames\/frame_2_l.png",
            "name":"Course Certificate",
            "description":"Lorem Ipsum has been the industry's standard dummy text ever since the 1500s, when an unknown printer took a galley of type."
            },
            {
            "image":"http:\/\/portal2.abara.com\/admin\/resources\/certificates\/frames\/frame_3_l.png",
            "name":"Joining Certificate",
            "description":"Scrambled it to make a type specimen book lorem Ipsum is simply dummy text."
            },
            {
            "image":"http:\/\/portal2.abara.com\/admin\/resources\/certificates\/frames\/frame_4_l.png",
            "name":"Demo Certificate",
            "description":"Scrambled it to make a type specimen book lorem Ipsum is simply dummy text."
            }
            ]
}