{
  "images" : [
    {
      "idiom" : "iphone",
      "filename" : "REP_M02_S01_E1_iphone-1_edited.png",
      "scale" : "1x"
    },
    {
      "idiom" : "iphone",
      "scale" : "2x"
    },
    {
      "idiom" : "iphone",
      "scale" : "3x"
    },
    {
      "idiom" : "ipad",
      "filename" : "REP_M02_S01_E1_ipad-1.png",
      "scale" : "1x"
    },
    {
      "idiom" : "ipad",
      "scale" : "2x"
    }
  ],
  "info" : {
    "version" : 1,
    "author" : "xcode"
  }
}